# 3ds Max Wavefront OBJ Exporter v0.97b - (c)2007 guruware
# File Created: 14.02.2012 13:41:26

newmtl 13620_Teleosaurus
	Ns 30.0000
	Ni 1.5000
	d 1.0000
	Tr 0.0000
	Tf 1.0000 1.0000 1.0000 
	illum 2
	Ka 1.0000 1.0000 1.0000
	Kd 1.0000 1.0000 1.0000
	Ks 0.4500 0.4500 0.4500
	Ke 0.0000 0.0000 0.0000
	map_Ka 13620_Teleosaurus_diff.jpg
	map_Kd 13620_Teleosaurus_diff.jpg
