%YAML 1.1
%TAG !u! tag:unity3d.com,2011:
--- !u!65 &473173745
BoxCollider:
  m_ObjectHideFlags: 0
  m_CorrespondingSourceObject: {fileID: 0}
  m_PrefabInstance: {fileID: 0}
  m_PrefabAsset: {fileID: 0}
  m_GameObject: {fileID: 516739187956462123}
  m_Material: {fileID: 0}
  m_IsTrigger: 1
  m_Enabled: 1
  serializedVersion: 2
  m_Size: {x: 1.2346767, y: 1.0568844, z: 1.4477055}
  m_Center: {x: 0.09375141, y: 0.38472092, z: 0.14042065}
--- !u!95 &473173746
Animator:
  serializedVersion: 3
  m_ObjectHideFlags: 0
  m_CorrespondingSourceObject: {fileID: 0}
  m_PrefabInstance: {fileID: 0}
  m_PrefabAsset: {fileID: 0}
  m_GameObject: {fileID: 516739187956462123}
  m_Enabled: 1
  m_Avatar: {fileID: 0}
  m_Controller: {fileID: 9100000, guid: 8ba7df228b32fb340be5b467ab9424b8, type: 2}
  m_CullingMode: 0
  m_UpdateMode: 0
  m_ApplyRootMotion: 0
  m_LinearVelocityBlending: 0
  m_WarningMessage: 
  m_HasTransformHierarchy: 1
  m_AllowConstantClipSamplingOptimization: 1
  m_KeepAnimatorControllerStateOnDisable: 0
--- !u!114 &473173749
MonoBehaviour:
  m_ObjectHideFlags: 0
  m_CorrespondingSourceObject: {fileID: 0}
  m_PrefabInstance: {fileID: 0}
  m_PrefabAsset: {fileID: 0}
  m_GameObject: {fileID: 516739187956462123}
  m_Enabled: 1
  m_EditorHideFlags: 0
  m_Script: {fileID: 11500000, guid: 708ad7ec0b14ba8449c39a01b403985a, type: 3}
  m_Name: 
  m_EditorClassIdentifier: 
  controladorJuego: {fileID: 0}
--- !u!1001 &516739187956429963
PrefabInstance:
  m_ObjectHideFlags: 0
  serializedVersion: 2
  m_Modification:
    m_TransformParent: {fileID: 0}
    m_Modifications:
    - target: {fileID: 100000, guid: 19497d68b37d2594fb3e269601d333be, type: 3}
      propertyPath: m_Name
      value: gemaRoja Variant
      objectReference: {fileID: 0}
    - target: {fileID: 400000, guid: 19497d68b37d2594fb3e269601d333be, type: 3}
      propertyPath: m_LocalPosition.x
      value: 6.3801
      objectReference: {fileID: 0}
    - target: {fileID: 400000, guid: 19497d68b37d2594fb3e269601d333be, type: 3}
      propertyPath: m_LocalPosition.y
      value: -0.38563
      objectReference: {fileID: 0}
    - target: {fileID: 400000, guid: 19497d68b37d2594fb3e269601d333be, type: 3}
      propertyPath: m_LocalPosition.z
      value: 33.004
      objectReference: {fileID: 0}
    - target: {fileID: 400000, guid: 19497d68b37d2594fb3e269601d333be, type: 3}
      propertyPath: m_LocalRotation.x
      value: 0.017751679
      objectReference: {fileID: 0}
    - target: {fileID: 400000, guid: 19497d68b37d2594fb3e269601d333be, type: 3}
      propertyPath: m_LocalRotation.y
      value: 0.017142592
      objectReference: {fileID: 0}
    - target: {fileID: 400000, guid: 19497d68b37d2594fb3e269601d333be, type: 3}
      propertyPath: m_LocalRotation.z
      value: 0.017142594
      objectReference: {fileID: 0}
    - target: {fileID: 400000, guid: 19497d68b37d2594fb3e269601d333be, type: 3}
      propertyPath: m_LocalRotation.w
      value: 0.99954855
      objectReference: {fileID: 0}
    - target: {fileID: 400000, guid: 19497d68b37d2594fb3e269601d333be, type: 3}
      propertyPath: m_RootOrder
      value: 0
      objectReference: {fileID: 0}
    - target: {fileID: 400000, guid: 19497d68b37d2594fb3e269601d333be, type: 3}
      propertyPath: m_LocalEulerAnglesHint.x
      value: 2
      objectReference: {fileID: 0}
    - target: {fileID: 400000, guid: 19497d68b37d2594fb3e269601d333be, type: 3}
      propertyPath: m_LocalEulerAnglesHint.y
      value: 2
      objectReference: {fileID: 0}
    - target: {fileID: 400000, guid: 19497d68b37d2594fb3e269601d333be, type: 3}
      propertyPath: m_LocalEulerAnglesHint.z
      value: 2
      objectReference: {fileID: 0}
    - target: {fileID: 400000, guid: 19497d68b37d2594fb3e269601d333be, type: 3}
      propertyPath: m_LocalScale.x
      value: 0.31775364
      objectReference: {fileID: 0}
    - target: {fileID: 400000, guid: 19497d68b37d2594fb3e269601d333be, type: 3}
      propertyPath: m_LocalScale.y
      value: 0.3286647
      objectReference: {fileID: 0}
    - target: {fileID: 400000, guid: 19497d68b37d2594fb3e269601d333be, type: 3}
      propertyPath: m_LocalScale.z
      value: 0.27303955
      objectReference: {fileID: 0}
    - target: {fileID: 2300000, guid: 19497d68b37d2594fb3e269601d333be, type: 3}
      propertyPath: m_Materials.Array.data[0]
      value: 
      objectReference: {fileID: 2100000, guid: 848918a99d11f25f110026ca44295342, type: 2}
    - target: {fileID: 6400000, guid: 19497d68b37d2594fb3e269601d333be, type: 3}
      propertyPath: m_Enabled
      value: 1
      objectReference: {fileID: 0}
    m_RemovedComponents:
    - {fileID: 6400000, guid: 19497d68b37d2594fb3e269601d333be, type: 3}
  m_SourcePrefab: {fileID: 100100000, guid: 19497d68b37d2594fb3e269601d333be, type: 3}
--- !u!1 &516739187956462123 stripped
GameObject:
  m_CorrespondingSourceObject: {fileID: 100000, guid: 19497d68b37d2594fb3e269601d333be,
    type: 3}
  m_PrefabInstance: {fileID: 516739187956429963}
  m_PrefabAsset: {fileID: 0}
