%YAML 1.1
%TAG !u! tag:unity3d.com,2011:
--- !u!65 &1187755441
BoxCollider:
  m_ObjectHideFlags: 0
  m_CorrespondingSourceObject: {fileID: 0}
  m_PrefabInstance: {fileID: 0}
  m_PrefabAsset: {fileID: 0}
  m_GameObject: {fileID: 3330259541884928536}
  m_Material: {fileID: 0}
  m_IsTrigger: 1
  m_Enabled: 1
  serializedVersion: 2
  m_Size: {x: 0.08578174, y: 0.06665551, z: 0.08181854}
  m_Center: {x: 0.020071348, y: -0.0031811954, z: -0.0048014345}
--- !u!114 &1187755443
MonoBehaviour:
  m_ObjectHideFlags: 0
  m_CorrespondingSourceObject: {fileID: 0}
  m_PrefabInstance: {fileID: 0}
  m_PrefabAsset: {fileID: 0}
  m_GameObject: {fileID: 3330259541884928536}
  m_Enabled: 1
  m_EditorHideFlags: 0
  m_Script: {fileID: 11500000, guid: 1cdef28b14c6c3544b22746b42603523, type: 3}
  m_Name: 
  m_EditorClassIdentifier: 
  controladorJuego: {fileID: 0}
--- !u!95 &964306756
Animator:
  serializedVersion: 3
  m_ObjectHideFlags: 0
  m_CorrespondingSourceObject: {fileID: 0}
  m_PrefabInstance: {fileID: 0}
  m_PrefabAsset: {fileID: 0}
  m_GameObject: {fileID: 3330259541884928538}
  m_Enabled: 1
  m_Avatar: {fileID: 0}
  m_Controller: {fileID: 9100000, guid: 11197ea2d1b1d0848a1e5a5642821b32, type: 2}
  m_CullingMode: 0
  m_UpdateMode: 0
  m_ApplyRootMotion: 0
  m_LinearVelocityBlending: 0
  m_WarningMessage: 
  m_HasTransformHierarchy: 1
  m_AllowConstantClipSamplingOptimization: 1
  m_KeepAnimatorControllerStateOnDisable: 0
--- !u!1001 &3330259541885027512
PrefabInstance:
  m_ObjectHideFlags: 0
  serializedVersion: 2
  m_Modification:
    m_TransformParent: {fileID: 0}
    m_Modifications:
    - target: {fileID: 100000, guid: 69e570a331da80d4f9bb60a69b974919, type: 3}
      propertyPath: m_Name
      value: Moneda Variant
      objectReference: {fileID: 0}
    - target: {fileID: 400000, guid: 69e570a331da80d4f9bb60a69b974919, type: 3}
      propertyPath: m_LocalPosition.x
      value: 156.4
      objectReference: {fileID: 0}
    - target: {fileID: 400000, guid: 69e570a331da80d4f9bb60a69b974919, type: 3}
      propertyPath: m_LocalPosition.y
      value: 0.95
      objectReference: {fileID: 0}
    - target: {fileID: 400000, guid: 69e570a331da80d4f9bb60a69b974919, type: 3}
      propertyPath: m_LocalPosition.z
      value: 168.59
      objectReference: {fileID: 0}
    - target: {fileID: 400000, guid: 69e570a331da80d4f9bb60a69b974919, type: 3}
      propertyPath: m_LocalRotation.x
      value: 0.33048907
      objectReference: {fileID: 0}
    - target: {fileID: 400000, guid: 69e570a331da80d4f9bb60a69b974919, type: 3}
      propertyPath: m_LocalRotation.y
      value: 0.37183234
      objectReference: {fileID: 0}
    - target: {fileID: 400000, guid: 69e570a331da80d4f9bb60a69b974919, type: 3}
      propertyPath: m_LocalRotation.z
      value: 0.6251216
      objectReference: {fileID: 0}
    - target: {fileID: 400000, guid: 69e570a331da80d4f9bb60a69b974919, type: 3}
      propertyPath: m_LocalRotation.w
      value: 0.6014489
      objectReference: {fileID: 0}
    - target: {fileID: 400000, guid: 69e570a331da80d4f9bb60a69b974919, type: 3}
      propertyPath: m_RootOrder
      value: 0
      objectReference: {fileID: 0}
    - target: {fileID: 400000, guid: 69e570a331da80d4f9bb60a69b974919, type: 3}
      propertyPath: m_LocalEulerAnglesHint.x
      value: -3.8610003
      objectReference: {fileID: 0}
    - target: {fileID: 400000, guid: 69e570a331da80d4f9bb60a69b974919, type: 3}
      propertyPath: m_LocalEulerAnglesHint.y
      value: 59.590004
      objectReference: {fileID: 0}
    - target: {fileID: 400000, guid: 69e570a331da80d4f9bb60a69b974919, type: 3}
      propertyPath: m_LocalEulerAnglesHint.z
      value: 90
      objectReference: {fileID: 0}
    - target: {fileID: 400000, guid: 69e570a331da80d4f9bb60a69b974919, type: 3}
      propertyPath: m_LocalScale.x
      value: 6
      objectReference: {fileID: 0}
    - target: {fileID: 400000, guid: 69e570a331da80d4f9bb60a69b974919, type: 3}
      propertyPath: m_LocalScale.y
      value: 6
      objectReference: {fileID: 0}
    - target: {fileID: 400000, guid: 69e570a331da80d4f9bb60a69b974919, type: 3}
      propertyPath: m_LocalScale.z
      value: 6
      objectReference: {fileID: 0}
    - target: {fileID: 400002, guid: 69e570a331da80d4f9bb60a69b974919, type: 3}
      propertyPath: m_LocalPosition.x
      value: 0.023
      objectReference: {fileID: 0}
    - target: {fileID: 400002, guid: 69e570a331da80d4f9bb60a69b974919, type: 3}
      propertyPath: m_LocalPosition.y
      value: 0
      objectReference: {fileID: 0}
    - target: {fileID: 400002, guid: 69e570a331da80d4f9bb60a69b974919, type: 3}
      propertyPath: m_LocalPosition.z
      value: -0
      objectReference: {fileID: 0}
    m_RemovedComponents: []
  m_SourcePrefab: {fileID: 100100000, guid: 69e570a331da80d4f9bb60a69b974919, type: 3}
--- !u!1 &3330259541884928536 stripped
GameObject:
  m_CorrespondingSourceObject: {fileID: 100000, guid: 69e570a331da80d4f9bb60a69b974919,
    type: 3}
  m_PrefabInstance: {fileID: 3330259541885027512}
  m_PrefabAsset: {fileID: 0}
--- !u!1 &3330259541884928538 stripped
GameObject:
  m_CorrespondingSourceObject: {fileID: 100002, guid: 69e570a331da80d4f9bb60a69b974919,
    type: 3}
  m_PrefabInstance: {fileID: 3330259541885027512}
  m_PrefabAsset: {fileID: 0}
